{
  "results": [
    {
      "vote_count": 719,
      "id": 335983,
      "video": false,
      "vote_average": 6.7,
      "title": "Venom",
      "popularity": 672.848,
      "poster_path": "/2uNW4WbgBXL25BAbXGLnLqX71Sw.jpg",
      "original_language": "en",
      "original_title": "Venom",
      "genre_ids": [
        27,
        878,
        28,
        53
      ],
      "backdrop_path": "/VuukZLgaCrho2Ar8Scl9HtV3yD.jpg",
      "adult": false,
      "overview": "When Eddie Brock acquires the powers of a symbiote, he will have to release his alter-ego “Venom” to save his life.",
      "release_date": "2018-10-03"
    },
    {
      "vote_count": 1025,
      "id": 439079,
      "video": false,
      "vote_average": 5.8,
      "title": "The Nun",
      "popularity": 193.784,
      "poster_path": "/sFC1ElvoKGdHJIWRpNB3xWJ9lJA.jpg",
      "original_language": "en",
      "original_title": "The Nun",
      "genre_ids": [
        27,
        9648,
        53
      ],
      "backdrop_path": "/fgsHxz21B27hOOqQBiw9L6yWcM7.jpg",
      "adult": false,
      "overview": "When a young nun at a cloistered abbey in Romania takes her own life, a priest with a haunted past and a novitiate on the threshold of her final vows are sent by the Vatican to investigate. Together they uncover the order’s unholy secret. Risking not only their lives but their faith and their very souls, they confront a malevolent force in the form of the same demonic nun that first terrorized audiences in “The Conjuring 2,” as the abbey becomes a horrific battleground between the living and the damned.",
      "release_date": "2018-09-05"
    },
    {
      "vote_count": 478,
      "id": 346910,
      "video": false,
      "vote_average": 5.3,
      "title": "The Predator",
      "popularity": 192.972,
      "poster_path": "/wMq9kQXTeQCHUZOG4fAe5cAxyUA.jpg",
      "original_language": "en",
      "original_title": "The Predator",
      "genre_ids": [
        27,
        878,
        28,
        35
      ],
      "backdrop_path": "/f4E0ocYeToEuXvczZv6QArrMDJ.jpg",
      "adult": false,
      "overview": "From the outer reaches of space to the small-town streets of suburbia, the hunt comes home. Now, the universe’s most lethal hunters are stronger, smarter and deadlier than ever before, having genetically upgraded themselves with DNA from other species. When a young boy accidentally triggers their return to Earth, only a ragtag crew of ex-soldiers and a disgruntled science teacher can prevent the end of the human race.",
      "release_date": "2018-09-13"
    },
    {
      "vote_count": 255,
      "id": 332562,
      "video": false,
      "vote_average": 7.3,
      "title": "A Star Is Born",
      "popularity": 136.049,
      "poster_path": "/wrFpXMNBRj2PBiN4Z5kix51XaIZ.jpg",
      "original_language": "en",
      "original_title": "A Star Is Born",
      "genre_ids": [
        18,
        10402,
        10749
      ],
      "backdrop_path": "/840rbblaLc4SVxm8gF3DNdJ0YAE.jpg",
      "adult": false,
      "overview": "Seasoned musician Jackson Maine discovers—and falls in love with—struggling artist Ally. She has just about given up on her dream to make it big as a singer—until Jack coaxes her into the spotlight. But even as Ally's career takes off, the personal side of their relationship is breaking down, as Jack fights an ongoing battle with his own internal demons.",
      "release_date": "2018-10-03"
    },
    {
      "vote_count": 71,
      "id": 463272,
      "video": false,
      "vote_average": 6.1,
      "title": "Johnny English Strikes Again",
      "popularity": 130.064,
      "poster_path": "/tCBxnZwLiY1BOKw3tH6AxHZdqPh.jpg",
      "original_language": "en",
      "original_title": "Johnny English Strikes Again",
      "genre_ids": [
        12,
        10751,
        28,
        35
      ],
      "backdrop_path": "/yCOLqh5MOGyYdo58Ap0aWvKop9h.jpg",
      "adult": false,
      "overview": "Disaster strikes when a criminal mastermind reveals the identities of all active undercover agents in Britain. The secret service can now rely on only one man—Johnny English. Currently teaching at a minor prep school, Johnny springs back into action to find the mysterious hacker. For this mission to succeed, he’ll need all of his skills—what few he has—as the man with yesterday’s analogue methods faces off against tomorrow’s digital technology.",
      "release_date": "2018-09-13"
    },
    {
      "vote_count": 940,
      "id": 447200,
      "video": false,
      "vote_average": 6.1,
      "title": "Skyscraper",
      "popularity": 85.822,
      "poster_path": "/5LYSsOPzuP13201qSzMjNxi8FxN.jpg",
      "original_language": "en",
      "original_title": "Skyscraper",
      "genre_ids": [
        28,
        53,
        18
      ],
      "backdrop_path": "/oMKFQmoVgB69fyXfSMu0lGlHJP2.jpg",
      "adult": false,
      "overview": "Framed and on the run, a former FBI agent must save his family from a blazing fire in the world's tallest building.",
      "release_date": "2018-07-11"
    },
    {
      "vote_count": 95,
      "id": 443463,
      "video": false,
      "vote_average": 7,
      "title": "Leave No Trace",
      "popularity": 84.739,
      "poster_path": "/awGdHLQdPARAWyiT4hzu1ZFdsHO.jpg",
      "original_language": "en",
      "original_title": "Leave No Trace",
      "genre_ids": [
        18
      ],
      "backdrop_path": "/c5GHB444LQShWnO29ulpFMLo4Am.jpg",
      "adult": false,
      "overview": "A father and daughter live a perfect but mysterious existence in Forest Park, a beautiful nature reserve near Portland, Oregon, rarely making contact with the world. But when a small mistake tips them off to authorities, they are sent on an increasingly erratic journey in search of a place to call their own.",
      "release_date": "2018-06-29"
    },
    {
      "vote_count": 102,
      "id": 347375,
      "video": false,
      "vote_average": 5.6,
      "title": "Mile 22",
      "popularity": 82.759,
      "poster_path": "/dT1XzjxRDR56xOm4Ph0INV4EmWJ.jpg",
      "original_language": "en",
      "original_title": "Mile 22",
      "genre_ids": [
        28
      ],
      "backdrop_path": "/eTwftrInxzZTSLUkX5hoifOczKJ.jpg",
      "adult": false,
      "overview": "A CIA field officer and an Indonesian police officer are forced to work together in confronting political corruption. An informant must be moved twenty-two miles to safety.",
      "release_date": "2018-08-16"
    },
    {
      "vote_count": 51,
      "id": 446894,
      "video": false,
      "vote_average": 7.1,
      "title": "Smallfoot",
      "popularity": 76.158,
      "poster_path": "/4nKoB6wMVXfsYgRZK5lHZ5VMQ6J.jpg",
      "original_language": "en",
      "original_title": "Smallfoot",
      "genre_ids": [
        35,
        16,
        10751,
        12,
        14
      ],
      "backdrop_path": "/7t88SoT3Dd8DhGnQuVoSbMNUl3W.jpg",
      "adult": false,
      "overview": "A bright young yeti finds something he thought didn't exist—a human. News of this “smallfoot” throws the simple yeti community into an uproar over what else might be out there in the big world beyond their snowy village.",
      "release_date": "2018-09-20"
    },
    {
      "vote_count": 254,
      "id": 399360,
      "video": false,
      "vote_average": 5.4,
      "title": "Alpha",
      "popularity": 71.087,
      "poster_path": "/afdZAIcAQscziqVtsEoh2PwsYTW.jpg",
      "original_language": "en",
      "original_title": "Alpha",
      "genre_ids": [
        12,
        18
      ],
      "backdrop_path": "/nKMeTdm72LQ756Eq20uTjF1zDXu.jpg",
      "adult": false,
      "overview": "After a hunting expedition goes awry, a young caveman struggles against the elements to find his way home.",
      "release_date": "2018-08-17"
    },
    {
      "vote_count": 64,
      "id": 493551,
      "video": false,
      "vote_average": 6.6,
      "title": "Operation Finale",
      "popularity": 68.945,
      "poster_path": "/nlIdPeH5IrR1qRErschnVQeZAQu.jpg",
      "original_language": "en",
      "original_title": "Operation Finale",
      "genre_ids": [
        18,
        36,
        53
      ],
      "backdrop_path": "/7diKA3XyLUB9pV6oI9FznQ5lv66.jpg",
      "adult": false,
      "overview": "In 1960, a team of Israeli secret agents is deployed to find Adolf Eichmann, the infamous Nazi architect of the Holocaust, supposedly hidden in Argentina, and get him to Israel to be judged.",
      "release_date": "2018-08-29"
    },
    {
      "vote_count": 1816,
      "id": 353081,
      "video": false,
      "vote_average": 7.2,
      "title": "Mission: Impossible - Fallout",
      "popularity": 64.719,
      "poster_path": "/AkJQpZp9WoNdj7pLYSj1L0RcMMN.jpg",
      "original_language": "en",
      "original_title": "Mission: Impossible - Fallout",
      "genre_ids": [
        12,
        28,
        53
      ],
      "backdrop_path": "/a9fRqsl6P27qxbDSb4pBXNv9Fwl.jpg",
      "adult": false,
      "overview": "When an IMF mission ends badly, the world is faced with dire consequences. As Ethan Hunt takes it upon himself to fulfill his original briefing, the CIA begin to question his loyalty and his motives. The IMF team find themselves in a race against time, hunted by assassins while trying to prevent a global catastrophe.",
      "release_date": "2018-07-13"
    },
    {
      "vote_count": 225,
      "id": 489999,
      "video": false,
      "vote_average": 7.7,
      "title": "Searching",
      "popularity": 61.693,
      "poster_path": "/9N0T3BaHZNdUCcMZQIM3yMUFwEh.jpg",
      "original_language": "en",
      "original_title": "Searching",
      "genre_ids": [
        18,
        53
      ],
      "backdrop_path": "/3CCfgSvtvN3HwVs5hbcC1NhOAzw.jpg",
      "adult": false,
      "overview": "After his 16-year-old daughter goes missing, a desperate father breaks into her laptop to look for clues to find her. A thriller that unfolds entirely on computer screens.",
      "release_date": "2018-08-24"
    },
    {
      "vote_count": 103,
      "id": 463821,
      "video": false,
      "vote_average": 6.5,
      "title": "The House with a Clock in Its Walls",
      "popularity": 56.692,
      "poster_path": "/4MA86XWa0aYCwAu30qdvv3EyGBX.jpg",
      "original_language": "en",
      "original_title": "The House with a Clock in Its Walls",
      "genre_ids": [
        27,
        14,
        53,
        10751,
        9648
      ],
      "backdrop_path": "/tQvvRReWhrXnj28s4AIp2PblByg.jpg",
      "adult": false,
      "overview": "Ten-year-old Lewis goes to live with his uncle in a creaky old house that contains a mysterious ticktock noise. When Lewis accidentally awakens the dead, the town's sleepy facade magically springs to life with a secret world of witches and warlocks.",
      "release_date": "2018-09-15"
    },
    {
      "vote_count": 26,
      "id": 369972,
      "video": false,
      "vote_average": 4.1,
      "title": "First Man",
      "popularity": 56.636,
      "poster_path": "/i91mfvFcPPlaegcbOyjGgiWfZzh.jpg",
      "original_language": "en",
      "original_title": "First Man",
      "genre_ids": [
        36,
        18
      ],
      "backdrop_path": "/z1FkoHO7bz40S4JiptWHSYoPpxq.jpg",
      "adult": false,
      "overview": "A look at the life of the astronaut, Neil Armstrong, and the legendary space mission that led him to become the first man to walk on the Moon on July 20, 1969.",
      "release_date": "2018-10-11"
    },
    {
      "vote_count": 634,
      "id": 345887,
      "video": false,
      "vote_average": 6.2,
      "title": "The Equalizer 2",
      "popularity": 56.204,
      "poster_path": "/cQvc9N6JiMVKqol3wcYrGshsIdZ.jpg",
      "original_language": "en",
      "original_title": "The Equalizer 2",
      "genre_ids": [
        53,
        28,
        80
      ],
      "backdrop_path": "/z6KLDE72SxE1A8JcJTmmnWArOvR.jpg",
      "adult": false,
      "overview": "Robert McCall returns to deliver his special brand of vigilante justice—but how far will he go when it’s someone he loves?",
      "release_date": "2018-07-19"
    },
    {
      "vote_count": 756,
      "id": 458423,
      "video": false,
      "vote_average": 7.6,
      "title": "Mamma Mia! Here We Go Again",
      "popularity": 54.027,
      "poster_path": "/aWicerX4Y7n7tUwRAVHsVcBBpj2.jpg",
      "original_language": "en",
      "original_title": "Mamma Mia! Here We Go Again",
      "genre_ids": [
        35,
        10749,
        10402
      ],
      "backdrop_path": "/8HKwxHZ23sW8wz4yb28IWnAM1M6.jpg",
      "adult": false,
      "overview": "Five years after meeting her three fathers, Sophie Sheridan prepares to open her mother’s hotel. In 1979, young Donna Sheridan meets the men who each could be Sophie’s biological father.",
      "release_date": "2018-07-18"
    },
    {
      "vote_count": 253,
      "id": 455207,
      "video": false,
      "vote_average": 6.9,
      "title": "Crazy Rich Asians",
      "popularity": 53.819,
      "poster_path": "/gnTqi4nhIi1eesT5uYMmhEPGNih.jpg",
      "original_language": "en",
      "original_title": "Crazy Rich Asians",
      "genre_ids": [
        35,
        18
      ],
      "backdrop_path": "/zeHB7aP46Xs3u4aFLuAq2GFeUGb.jpg",
      "adult": false,
      "overview": "An American-born Chinese economics professor accompanies her boyfriend to Singapore for his best friend's wedding, only to get thrust into the lives of Asia's rich and famous.",
      "release_date": "2018-08-15"
    },
    {
      "vote_count": 129,
      "id": 433498,
      "video": false,
      "vote_average": 7.7,
      "title": "Papillon",
      "popularity": 53.354,
      "poster_path": "/ahF5c6vyP8HWMqIwlhecbRALkjq.jpg",
      "original_language": "en",
      "original_title": "Papillon",
      "genre_ids": [
        18,
        12
      ],
      "backdrop_path": "/dcfUqO8UPltBl45O4YcFE66RzZe.jpg",
      "adult": false,
      "overview": "Henri \"Papillon\" Charrière is convicted in Paris for a murder he did not commit. Sentenced to life imprisonment in the penal colony of French Guiana, he becomes obsessed with escaping. After planning and executing a series of treacherous yet failed attempts, he's sent to the notorious prison Devil's Island, a place from which no one has ever escaped.",
      "release_date": "2018-07-26"
    },
    {
      "vote_count": 72,
      "id": 458594,
      "video": false,
      "vote_average": 6.9,
      "title": "Peppermint",
      "popularity": 49.013,
      "poster_path": "/jrzxS0vcbzIIay1sdYm0rgI2QfJ.jpg",
      "original_language": "en",
      "original_title": "Peppermint",
      "genre_ids": [
        28,
        80,
        53
      ],
      "backdrop_path": "/5Bh1u5dtn8g6AY0qf2TRQxJTtS0.jpg",
      "adult": false,
      "overview": "A grieving mother transforms herself into a vigilante following the murders of her husband and daughter, eluding the authorities to deliver her own personal brand of justice.",
      "release_date": "2018-09-06"
    }
  ],
  "page": 1,
  "total_results": 1186,
  "dates": {
    "maximum": "2018-10-16",
    "minimum": "2018-08-29"
  },
  "total_pages": 60
}